{
	"resource": {
		"package_id": "kvalitetsindikatorer",
		"name": "kik-v1-measures",
    	"hash": "kik-v1-measures__"
	},
	"fields": [{
		"id": "measureId",
		"type": "text"
	},
	{
		"id": "lastUpdated",
		"type": "timestamp"
	},
	{
		"id": "validFrom",
		"type": "date"
	},
	{
		"id": "validTo",
		"type": "date"
	},
	{
		"id": "publiclyAvailableInformation",
		"type": "bool"
	},
	{
		"id": "regionalIndicator",
		"type": "text[]"
	},
	{
		"id": "subCategoryDefinition",
		"type": "json"
	},
	{
		"id": "parentMeasureDefinition",
		"type": "json"
	},
	{
		"id": "author",
		"type": "json"
	},
	{
		"id": "authenticator",
		"type": "json"
	}],
	"primary_key": "measureId",
	"records": [
        {
            "measureId": "25bd3343-9b46-4253-9f69-b3820127bb61",
            "author": null,
            "validTo": null,
            "parentMeasureDefinition": null,
            "lastUpdated": "2017-08-23T09:41:14",
            "authenticator": null,
            "validFrom": null,
            "subCategoryDefinition": {
                "parentMeasureId": "12a949bc-c0a2-4a68-9e28-b4988e0d71e5",
                "subCategoryCode": [
                    {
                        "code": "fcce1432-6aba-4f77-b538-4d452dcd54d5",
                        "system": "19bb7abe-7de4-420f-8259-7aca0a461b6f"
                    },
                    {
                        "code": "545779e637874129a8ef8af5",
                        "system": "5457794537874129a8ef8aaf"
                    }
                ]
            },
            "publiclyAvailableInformation": true,
            "regionalIndicator": null
        },
        {
            "measureId": "66600cfd-6b36-435b-9d68-9d1469ae223d",
            "author": null,
            "validTo": null,
            "parentMeasureDefinition": null,
            "lastUpdated": "2016-05-24T15:41:14",
            "authenticator": null,
            "validFrom": null,
            "subCategoryDefinition": {
                "parentMeasureId": "44f5feb2-0223-4cc8-bb03-33e8d938bebd",
                "subCategoryCode": [
                    {
                        "code": "f97f762b-73c2-4bbe-b0f3-2bc0e96ecd90",
                        "system": "19bb7abe-7de4-420f-8259-7aca0a461b6f"
                    },
                    {
                        "code": "545779c937874129a8ef8ace",
                        "system": "5457794537874129a8ef8aaf"
                    }
                ]
            },
            "publiclyAvailableInformation": false,
            "regionalIndicator": null
        },
        {
            "measureId": "356729e3-9371-43dc-864e-ba96f5f7b119",
            "author": null,
            "validTo": null,
            "parentMeasureDefinition": null,
            "lastUpdated": "2016-05-26T10:35:50",
            "authenticator": null,
            "validFrom": null,
            "subCategoryDefinition": {
                "parentMeasureId": "a2b3861c-f539-4e4b-a435-f64e293115ad",
                "subCategoryCode": [
                    {
                        "code": "e1924794-34f4-4565-b2fa-3a68ee7ee4c7",
                        "system": "19bb7abe-7de4-420f-8259-7aca0a461b6f"
                    },
                    {
                        "code": "545779e637874129a8ef8af5",
                        "system": "5457794537874129a8ef8aaf"
                    }
                ]
            },
            "publiclyAvailableInformation": false,
            "regionalIndicator": null
        },
        {
            "measureId": "2ff2c646-90b3-4212-b2db-86ff30fbdbc4",
            "author": null,
            "validTo": null,
            "parentMeasureDefinition": null,
            "lastUpdated": "2015-06-18T11:48:56",
            "authenticator": null,
            "validFrom": null,
            "subCategoryDefinition": {
                "parentMeasureId": "059117c0-988a-466c-afb8-3c54df25666d",
                "subCategoryCode": [
                    {
                        "code": "545779e637874129a8ef8af5",
                        "system": "5457794537874129a8ef8aaf"
                    }
                ]
            },
            "publiclyAvailableInformation": false,
            "regionalIndicator": null
        },
        {
            "measureId": "5b73bbe3-16e6-4475-9d0a-b5b52902310c",
            "author": null,
            "validTo": null,
            "parentMeasureDefinition": null,
            "lastUpdated": "2016-05-26T09:56:08",
            "authenticator": null,
            "validFrom": null,
            "subCategoryDefinition": {
                "parentMeasureId": "963d0fd9-7f4c-4ec3-9c76-55e6080f1cca",
                "subCategoryCode": [
                    {
                        "code": "f97f762b-73c2-4bbe-b0f3-2bc0e96ecd90",
                        "system": "19bb7abe-7de4-420f-8259-7aca0a461b6f"
                    },
                    {
                        "code": "545779c937874129a8ef8ace",
                        "system": "5457794537874129a8ef8aaf"
                    }
                ]
            },
            "publiclyAvailableInformation": false,
            "regionalIndicator": null
        },
        {
            "measureId": "05cd2748-608e-4395-8318-cf194c06ad59",
            "author": null,
            "validTo": null,
            "parentMeasureDefinition": null,
            "lastUpdated": "2017-08-23T13:50:21",
            "authenticator": null,
            "validFrom": null,
            "subCategoryDefinition": {
                "parentMeasureId": "4913fd2a-dec1-4fa8-828b-f2ff527d44a9",
                "subCategoryCode": [
                    {
                        "code": "d5de3227-609a-4b32-b282-6de22c502857",
                        "system": "19bb7abe-7de4-420f-8259-7aca0a461b6f"
                    },
                    {
                        "code": "545779c937874129a8ef8ace",
                        "system": "5457794537874129a8ef8aaf"
                    }
                ]
            },
            "publiclyAvailableInformation": false,
            "regionalIndicator": null
        },
        {
            "measureId": "fc016441-06dc-4759-8b09-fe826ca6fc05",
            "author": null,
            "validTo": null,
            "parentMeasureDefinition": null,
            "lastUpdated": "2016-05-27T09:30:39",
            "authenticator": null,
            "validFrom": null,
            "subCategoryDefinition": {
                "parentMeasureId": "cef289b1-be93-4b91-ad69-2558fc0d3707",
                "subCategoryCode": [
                    {
                        "code": "fb9376b6-12fa-47b4-8a2a-031657a72a0d",
                        "system": "19bb7abe-7de4-420f-8259-7aca0a461b6f"
                    },
                    {
                        "code": "545779c937874129a8ef8ace",
                        "system": "5457794537874129a8ef8aaf"
                    }
                ]
            },
            "publiclyAvailableInformation": false,
            "regionalIndicator": null
        },
        {
            "measureId": "53def0ad-1ad9-400e-b1bb-148d19d82900",
            "author": null,
            "validTo": null,
            "parentMeasureDefinition": null,
            "lastUpdated": "2017-09-27T23:26:02",
            "authenticator": null,
            "validFrom": null,
            "subCategoryDefinition": {
                "parentMeasureId": "ed4c18d6-7314-4eb0-b558-61f3f20cc5e8",
                "subCategoryCode": [
                    {
                        "code": "fcce1432-6aba-4f77-b538-4d452dcd54d5",
                        "system": "19bb7abe-7de4-420f-8259-7aca0a461b6f"
                    }
                ]
            },
            "publiclyAvailableInformation": false,
            "regionalIndicator": null
        },
        {
            "measureId": "27e409e8-b65c-44f2-86a7-f809546274de",
            "author": null,
            "validTo": null,
            "parentMeasureDefinition": null,
            "lastUpdated": "2016-05-26T09:25:14",
            "authenticator": null,
            "validFrom": null,
            "subCategoryDefinition": {
                "parentMeasureId": "214946bf-4693-40b1-abb7-3ae620b88b2d",
                "subCategoryCode": [
                    {
                        "code": "e1924794-34f4-4565-b2fa-3a68ee7ee4c7",
                        "system": "19bb7abe-7de4-420f-8259-7aca0a461b6f"
                    },
                    {
                        "code": "545779e637874129a8ef8af5",
                        "system": "5457794537874129a8ef8aaf"
                    }
                ]
            },
            "publiclyAvailableInformation": false,
            "regionalIndicator": null
        },
        {
            "measureId": "4d809a9c-2d0a-41ef-ba63-37c0106d7cd5",
            "author": null,
            "validTo": null,
            "parentMeasureDefinition": null,
            "lastUpdated": "2017-04-04T09:04:38",
            "authenticator": null,
            "validFrom": null,
            "subCategoryDefinition": {
                "parentMeasureId": "e6636eaf-9455-4dc0-8bf5-9e20c67e1ef9",
                "subCategoryCode": [
                    {
                        "code": "7ad18479-ab08-4d3b-8fe4-62ad17f50336",
                        "system": "19bb7abe-7de4-420f-8259-7aca0a461b6f"
                    },
                    {
                        "code": "545779e637874129a8ef8af5",
                        "system": "5457794537874129a8ef8aaf"
                    }
                ]
            },
            "publiclyAvailableInformation": false,
            "regionalIndicator": null
        }
    ]
}