{
  "tags": [
    "Kvalitetsindikatorer"
  ],
  "full_channel_name": "DELETE kik v3 performingOrganizations --ID--",
  "summary": "Delete a single performingOrganization.",
  "parameters": [
    {
      "in": "path",
      "name": "ID",
      "schema": {
        "type": "string"
      },
      "description": "The performingOrganizationId of the performingOrganization to delete",
      "required": true
    }
  ],
  "responses": {
    "500": {
      "$ref": "#/components/responses/errors/ServerError"
    },
    "400":{
      "$ref": "#/components/responses/errors/BadRequest"
    },
    "401": {
      "$ref": "#/components/responses/errors/Unauthorized"
    },
    "200": {
      "$ref": "#/components/responses/DataDeleted"
    }
  }
}