{
"tags": ["Kvalitetsindikatorer"],
"full_channel_name": "GET kik v3 valueSets --ID--",
"summary": "Get a ValueSet based on its valueSetId",
  "parameters": [
    {
      "in": "path",
      "name": "ID",
      "schema":{
        "type": "string"
      },
      "description": "The valueSetId of the ValueSet to retrieve",
      "required": true
    },
    {
      "$ref": "#/components/parameters/kik/v3/valueSets/fields"
    }
  ],
  "responses": {
    "500": {
      "$ref": "#/components/responses/errors/ServerError"
    },
    "404": {
      "$ref": "#/components/responses/errors/NotFound"
    },
    "200": {
      "description": "ValueSet found",
      "content": {
        "application/json": {
          "schema": {
            "$ref": "#/components/schemas/KikV3ValueSetType"
          }
        }
      }
    }
  }
}