{
  "tags": [
    "Kvalitetsindikatorer"
  ],
  "full_channel_name": "GET kik v1 measures --ID-- targetMeasurements",
  "summary": "Get all TargetMeasurements based on their targetMeasureId",
  "parameters": [
    {
      "in": "path",
      "name": "ID",
      "schema": {
        "type": "string"
      },
      "description": "The targetMeasureId to filter on",
      "required": true
    },
    {
      "$ref": "#/components/parameters/limit"
    },
    {
      "$ref": "#/components/parameters/offset"
    },
    {
      "$ref": "#/components/parameters/kik/v1/targetMeasurements/fields"
    },
    {
      "$ref": "#/components/parameters/kik/v1/targetMeasurements/sort"
    }
  ],
  "responses": {
    "500": {
      "$ref": "#/components/responses/errors/ServerError"
    },
    "200": {
      "description": "Call was successful",
      "content": {
        "application/json": {
          "schema": {
            "oneOf": [
              {
                "type": "array",
                "items": {
                  "$ref": "#/components/schemas/KikV1TargetMeasurementType"
                }
              },
              {
                "$ref": "#/components/schemas/KikV1TargetMeasurementTypeLimitResponse"
              }
            ]
          }
        }
      },
      "examples": {
        "standardResponse": [
          "KikV1TargetMeasurementType"
        ],
        "responseWhenUsingLimitParameter": {
          "$ref": "#/components/schemas/KikV1TargetMeasurementTypeLimitResponse/example"
        }
      }
    }
  }
}