{
  "swagger": "2.0",
  "info": {
    "description": "Detta är dokumentationen över de API som används för att tillgängliggöra Ineras öppna data. Varje datamängd representeras av ett antal metoder för att filtrera och söka data. Dessa metoder kan testas på denna sida för att sedan byggas in i er egen applikation.",
    "version": "1.0",
    "title": "API - Inera Öppendataplattform",
    "contact": {
      "email": "kundservice@inera.se"
    },
    "license": {
      "name": "Apache 2.0",
      "url": "http://www.apache.org/licenses/LICENSE-2.0.html"
    }
  },
  "host": "localhost:8001",
  "basePath": "/api/v1",
  "tags": [
    {
      "name": "KIK",
      "description": ""
    },
    {
      "name": "CKAN",
      "description": ""
    },
    {
      "name": "HSA",
      "description": ""
    },
    {
      "name": "NKKS",
      "description": ""
    },
    {
      "name": "TEST",
      "description": ""
    }
  ],
  "schemes": [
    "http"
  ],
  "paths": {
    "/codeSystems": {
      "get": {
        "tags": [
          "KIK"
        ],
        "summary": "Get all Code Systems",
        "description": "",
        "parameters": [],
        "responses": {
          "200": {
            "description": "Data retrieved successfully"
          },
          "500": {
            "description": "Could not retrieve data"
          }
        },
        "consumes": [
          "application/json"
        ],
        "produces": [
          "application/json"
        ]
      },
      "post": {
        "tags": [
          "KIK"
        ],
        "summary": "Post codeSystems to CKAN",
        "description": "",
        "parameters": [
          {
            "in": "body",
            "name": "xml",
            "schema": {
              "type": "string"
            },
            "description": "The XML to send to CKAN",
            "required": true
          }
        ],
        "responses": {
          "200": {
            "description": "Data posted successfully"
          },
          "500": {
            "description": "Could not post data"
          }
        },
        "security": [
          {
            "api_key": []
          }
        ],
        "consumes": [
          "application/xml;charset=utf-8"
        ],
        "produces": [
          "application/json"
        ]
      }
    },
    "/codeSystems/{ID}": {
      "get": {
        "tags": [
          "KIK"
        ],
        "summary": "Get a codeSystem based on its OID",
        "description": "",
        "parameters": [
          {
            "in": "path",
            "name": "ID",
            "type": "string",
            "description": "The OID of the codeSystem to retrieve",
            "required": true
          }
        ],
        "responses": {
          "200": {
            "description": "Data retrieved successfully"
          },
          "500": {
            "description": "Could not retrieve data"
          }
        },
        "consumes": [
          "application/json"
        ],
        "produces": [
          "application/json"
        ]
      }
    },
    "/codes": {
      "get": {
        "tags": [
          "KIK"
        ],
        "summary": "Get all codes",
        "description": "",
        "parameters": [],
        "responses": {
          "200": {
            "description": "Data retrieved successfully"
          },
          "500": {
            "description": "Could not retrieve data"
          }
        },
        "consumes": [
          "application/json"
        ],
        "produces": [
          "application/json"
        ]
      },
      "post": {
        "tags": [
          "KIK"
        ],
        "summary": "Post codes to CKAN",
        "description": "",
        "parameters": [
          {
            "in": "body",
            "name": "xml",
            "schema": {
              "type": "string"
            },
            "description": "The XML to send to CKAN",
            "required": true
          }
        ],
        "responses": {
          "200": {
            "description": "Data posted successfully"
          },
          "500": {
            "description": "Could not post data"
          }
        },
        "security": [
          {
            "api_key": []
          }
        ],
        "consumes": [
          "application/xml;charset=utf-8"
        ],
        "produces": [
          "application/json"
        ]
      }
    },
    "/codes/{ID}": {
      "get": {
        "tags": [
          "KIK"
        ],
        "summary": "Get a code based on its codeId",
        "description": "",
        "parameters": [
          {
            "in": "path",
            "name": "ID",
            "type": "string",
            "description": "The codeId of the code to retrieve",
            "required": true
          }
        ],
        "responses": {
          "200": {
            "description": "Data retrieved successfully"
          },
          "500": {
            "description": "Could not retrieve data"
          }
        },
        "consumes": [
          "application/json"
        ],
        "produces": [
          "application/json"
        ]
      }
    },
    "/download/{ID}": {
      "get": {
        "tags": [
          "CKAN"
        ],
        "summary": "Download a file based on its resourceId",
        "description": "",
        "parameters": [
          {
            "in": "path",
            "name": "ID",
            "type": "string",
            "description": "The resourceId of the file to download.",
            "required": true
          }
        ],
        "responses": {
          "200": {
            "description": "File downloaded successfully"
          },
          "500": {
            "description": "Could not download file"
          }
        },
        "consumes": [
          "application/json"
        ],
        "produces": [
          "application/json"
        ]
      }
    },
    "/hsaObjects": {
      "get": {
        "tags": [
          "HSA"
        ],
        "summary": "Get all HSA objects",
        "description": "",
        "parameters": [],
        "responses": {
          "200": {
            "description": "Data retrieved successfully"
          },
          "500": {
            "description": "Could not retrieve data"
          }
        },
        "consumes": [
          "application/json"
        ],
        "produces": [
          "application/json"
        ]
      }
    },
    "/hsaObjects/{ID}": {
      "get": {
        "tags": [
          "HSA"
        ],
        "summary": "Get a HSA object based on its hsaIdentity",
        "description": "",
        "parameters": [
          {
            "in": "path",
            "name": "ID",
            "type": "string",
            "description": "The hsaIdentity of the HSA object to retrieve",
            "required": true
          }
        ],
        "responses": {
          "200": {
            "description": "Data retrieved successfully"
          },
          "500": {
            "description": "Could not retrieve data"
          }
        },
        "consumes": [
          "application/json"
        ],
        "produces": [
          "application/json"
        ]
      }
    },
    "/hsaObjects/{ID}/children": {
      "get": {
        "tags": [
          "HSA"
        ],
        "summary": "Get the children of a HSA object with the specified hsaIdentity",
        "description": "",
        "parameters": [
          {
            "in": "path",
            "name": "ID",
            "type": "string",
            "description": "The hsaIdentity of the parent HSA object",
            "required": true
          }
        ],
        "responses": {
          "200": {
            "description": "Data retrieved successfully"
          },
          "500": {
            "description": "Could not retrieve data"
          }
        },
        "consumes": [
          "application/json"
        ],
        "produces": [
          "application/json"
        ]
      }
    },
    "/hsaObjects/{ID}/parent": {
      "get": {
        "tags": [
          "HSA"
        ],
        "summary": "Get the parent of the object with the specified hsaIdentity",
        "description": "",
        "parameters": [
          {
            "in": "path",
            "name": "ID",
            "type": "string",
            "description": "The hsaIdentity of the HSA object whose parent should be retrieved",
            "required": true
          }
        ],
        "responses": {
          "200": {
            "description": "Data retrieved successfully"
          },
          "500": {
            "description": "Could not retrieve data"
          }
        },
        "consumes": [
          "application/json"
        ],
        "produces": [
          "application/json"
        ]
      }
    },
    "/measures/{ID}": {
      "get": {
        "tags": [
          "KIK"
        ],
        "summary": "Get a measure based on its measureId",
        "description": "",
        "parameters": [
          {
            "in": "path",
            "name": "ID",
            "type": "string",
            "description": "The measureId of the measure to retrieve",
            "required": true
          }
        ],
        "responses": {
          "200": {
            "description": "Data retrieved successfully"
          },
          "500": {
            "description": "Could not retrieve data"
          }
        },
        "consumes": [
          "application/json"
        ],
        "produces": [
          "application/json"
        ]
      }
    },
    "/measures/{ID}/subCategories": {
      "get": {
        "tags": [
          "KIK"
        ],
        "summary": "Returns all subCategoryDefinitions that have the specified parentMeasureId",
        "description": "",
        "parameters": [
          {
            "in": "path",
            "name": "ID",
            "type": "string",
            "description": "The parentMeasureId to get the subCategoryDefinition for",
            "required": true
          }
        ],
        "responses": {
          "200": {
            "description": "Data retrieved successfully"
          },
          "500": {
            "description": "Could not retrieve data"
          }
        },
        "consumes": [
          "application/json"
        ],
        "produces": [
          "application/json"
        ]
      }
    },
    "/measures/{ID}/targetMeasurements": {
      "get": {
        "tags": [
          "KIK"
        ],
        "summary": "Returns the targetMeasurement post for a specified targetMeasureId",
        "description": "",
        "parameters": [
          {
            "in": "path",
            "name": "ID",
            "type": "string",
            "description": "The targetMeasureId of the targetMeasurement to retrieve",
            "required": true
          }
        ],
        "responses": {
          "200": {
            "description": "Data retrieved successfully"
          },
          "500": {
            "description": "Could not retrieve data"
          }
        },
        "consumes": [
          "application/json"
        ],
        "produces": [
          "application/json"
        ]
      }
    },
    "/nkks": {
      "get": {
        "tags": [
          "NKKS"
        ],
        "summary": "Get all NKKS data",
        "description": "",
        "parameters": [],
        "responses": {
          "200": {
            "description": "Data retrieved successfully"
          },
          "500": {
            "description": "Could not retrieve data"
          }
        },
        "consumes": [
          "application/json"
        ],
        "produces": [
          "application/json"
        ]
      }
    },
    "/performingOrganizations": {
      "get": {
        "tags": [
          "KIK"
        ],
        "summary": "Get all Performing organizations",
        "description": "",
        "parameters": [],
        "responses": {
          "200": {
            "description": "Data retrieved successfully"
          },
          "500": {
            "description": "Could not retrieve data"
          }
        },
        "consumes": [
          "application/json"
        ],
        "produces": [
          "application/json"
        ]
      },
      "post": {
        "tags": [
          "KIK"
        ],
        "summary": "Post performingOrganizations to CKAN",
        "description": "",
        "parameters": [
          {
            "in": "body",
            "name": "xml",
            "schema": {
              "type": "string"
            },
            "description": "The XML to send to CKAN",
            "required": true
          }
        ],
        "responses": {
          "200": {
            "description": "Data posted successfully"
          },
          "500": {
            "description": "Could not post data"
          }
        },
        "security": [
          {
            "api_key": []
          }
        ],
        "consumes": [
          "application/xml;charset=utf-8"
        ],
        "produces": [
          "application/json"
        ]
      }
    },
    "/performingOrganizations/{ID}": {
      "get": {
        "tags": [
          "KIK"
        ],
        "summary": "Get a Performing organization post based on its performingOrganizationId",
        "description": "",
        "parameters": [
          {
            "in": "path",
            "name": "ID",
            "type": "string",
            "description": "The performingOrganizationId of the Performing organization post to retrieve",
            "required": true
          }
        ],
        "responses": {
          "200": {
            "description": "Data retrieved successfully"
          },
          "500": {
            "description": "Could not retrieve data"
          }
        },
        "consumes": [
          "application/json"
        ],
        "produces": [
          "application/json"
        ]
      }
    },
    "/showFiles/{ID}": {
      "get": {
        "tags": [
          "CKAN"
        ],
        "summary": "Show all uploaded files based on the dataset's packageId or name.",
        "description": "",
        "parameters": [
          {
            "in": "path",
            "name": "ID",
            "type": "string",
            "description": "The packageId or name of the dataset containing the files.",
            "required": true
          }
        ],
        "responses": {
          "200": {
            "description": "Data retrieved successfully"
          },
          "500": {
            "description": "Could not retrieve data"
          }
        },
        "consumes": [
          "application/json"
        ],
        "produces": [
          "application/json"
        ]
      }
    },
    "/status": {
      "get": {
        "tags": [
          "TEST"
        ],
        "summary": "Get API status to verify that the API is up and running",
        "description": "",
        "parameters": [],
        "responses": {
          "200": {
            "description": "API status retrieved successfully"
          },
          "500": {
            "description": "Could not retrieve API status"
          }
        },
        "consumes": [
          "application/json"
        ],
        "produces": [
          "text/html"
        ]
      }
    },
    "/targetMeasurements": {
      "get": {
        "tags": [
          "KIK"
        ],
        "summary": "Get all target measurements",
        "description": "",
        "parameters": [],
        "responses": {
          "200": {
            "description": "Data retrieved successfully"
          },
          "500": {
            "description": "Could not retrieve data"
          }
        },
        "consumes": [
          "application/json"
        ],
        "produces": [
          "application/json"
        ]
      },
      "post": {
        "tags": [
          "KIK"
        ],
        "summary": "Post targetMeasurements to CKAN",
        "description": "",
        "parameters": [
          {
            "in": "body",
            "name": "xml",
            "schema": {
              "type": "string"
            },
            "description": "The XML to send to CKAN",
            "required": true
          }
        ],
        "responses": {
          "200": {
            "description": "Data posted successfully"
          },
          "500": {
            "description": "Could not post data"
          }
        },
        "security": [
          {
            "api_key": []
          }
        ],
        "consumes": [
          "application/xml;charset=utf-8"
        ],
        "produces": [
          "application/json"
        ]
      }
    },
    "/targetMeasurements/{ID}": {
      "get": {
        "tags": [
          "KIK"
        ],
        "summary": "Get a Target measurement based on its targetMeasureId",
        "description": "",
        "parameters": [
          {
            "in": "path",
            "name": "ID",
            "type": "string",
            "description": "The targetMeasureId of the Target measurement to retrieve",
            "required": true
          }
        ],
        "responses": {
          "200": {
            "description": "Data retrieved successfully"
          },
          "500": {
            "description": "Could not retrieve data"
          }
        },
        "consumes": [
          "application/json"
        ],
        "produces": [
          "application/json"
        ]
      }
    },
    "/valueSets": {
      "get": {
        "tags": [
          "KIK"
        ],
        "summary": "Get all Value sets",
        "description": "",
        "parameters": [],
        "responses": {
          "200": {
            "description": "Data retrieved successfully"
          },
          "500": {
            "description": "Could not retrieve data"
          }
        },
        "consumes": [
          "application/json"
        ],
        "produces": [
          "application/json"
        ]
      },
      "post": {
        "tags": [
          "KIK"
        ],
        "summary": "Post valueSets to CKAN",
        "description": "",
        "parameters": [
          {
            "in": "body",
            "name": "xml",
            "schema": {
              "type": "string"
            },
            "description": "The XML to send to CKAN",
            "required": true
          }
        ],
        "responses": {
          "200": {
            "description": "Data posted successfully"
          },
          "500": {
            "description": "Could not post data"
          }
        },
        "security": [
          {
            "api_key": []
          }
        ],
        "consumes": [
          "application/xml;charset=utf-8"
        ],
        "produces": [
          "application/json"
        ]
      }
    },
    "/valueSets/{ID}": {
      "get": {
        "tags": [
          "KIK"
        ],
        "summary": "Get a Value set based on its valueSetId",
        "description": "",
        "parameters": [
          {
            "in": "path",
            "name": "ID",
            "type": "string",
            "description": "The valueSetId of the Value set to retrieve",
            "required": true
          }
        ],
        "responses": {
          "200": {
            "description": "Data retrieved successfully"
          },
          "500": {
            "description": "Could not retrieve data"
          }
        },
        "consumes": [
          "application/json"
        ],
        "produces": [
          "application/json"
        ]
      }
    },
    "/createDataset": {
      "post": {
        "tags": [
          "CKAN"
        ],
        "summary": "Create a new empty dataset",
        "description": "",
        "parameters": [
          {
            "in": "body",
            "name": "json",
            "description": "The JSON containing the details of the dataset to create",
            "required": true,
            "schema": {
              "type": "object",
              "properties": {
                "name": {
                  "type": "string",
                  "description": "The name of the dataset"
                },
                "notes": {
                  "type": "string",
                  "description": "A description of the dataset."
                }
              },
              "example": {
                "name": "my_dataset",
                "notes": "my_dataset contains useful information"
              },
              "required": [
                "name"
              ]
            }
          }
        ],
        "responses": {
          "200": {
            "description": "Dataset created successfully"
          },
          "500": {
            "description": "Could not create dataset"
          }
        },
        "security": [
          {
            "api_key": []
          }
        ],
        "consumes": [
          "application/json"
        ],
        "produces": [
          "application/json"
        ]
      }
    },
    "/measures": {
      "post": {
        "tags": [
          "KIK"
        ],
        "summary": "Post measures to CKAN",
        "description": "",
        "parameters": [
          {
            "in": "body",
            "name": "xml",
            "schema": {
              "type": "string"
            },
            "description": "The XML to send to CKAN",
            "required": true
          }
        ],
        "responses": {
          "200": {
            "description": "Data posted successfully"
          },
          "500": {
            "description": "Could not post data"
          }
        },
        "security": [
          {
            "api_key": []
          }
        ],
        "consumes": [
          "application/xml;charset=utf-8"
        ],
        "produces": [
          "application/json"
        ]
      }
    },
    "/postAndRenew/{ID}": {
      "post": {
        "tags": [
          "CKAN"
        ],
        "summary": "Post a new resource in and delete the old one (if existing)",
        "description": "",
        "parameters": [
          {
            "in": "path",
            "name": "ID",
            "type": "string",
            "description": "The grouping whose resource should be renewed. e.g. hsaObjects",
            "required": true
          }
        ],
        "responses": {
          "200": {
            "description": "Data posted successfully"
          },
          "500": {
            "description": "Could not post data"
          }
        },
        "security": [
          {
            "api_key": []
          }
        ],
        "consumes": [
          "application/json"
        ],
        "produces": [
          "application/json"
        ]
      }
    },
    "/upload": {
      "post": {
        "tags": [
          "CKAN"
        ],
        "summary": "Upload a file to CKAN filestore.",
        "description": "",
        "parameters": [
          {
            "in": "formData",
            "name": "file",
            "type": "file",
            "description": "The file to upload"
          }
        ],
        "responses": {
          "200": {
            "description": "File uploaded successfully"
          },
          "500": {
            "description": "Could not upload file"
          }
        },
        "security": [
          {
            "api_key": []
          }
        ],
        "consumes": [
          "multipart/form-data"
        ],
        "produces": [
          "application/json"
        ]
      }
    }
  },
  "securityDefinitions": {
    "api_key": {
      "type": "apiKey",
      "name": "Authorization",
      "in": "header"
    }
  },
  "definitions": {
    "Sample": {
      "type": "object",
      "required": [
        "name",
        "photoUrls"
      ],
      "properties": {
        "id": {
          "type": "integer",
          "format": "int64"
        },
        "name": {
          "type": "string",
          "example": "doggie"
        },
        "SubSample": {
          "$ref": "#/definitions/SubSample"
        },
        "anArray": {
          "type": "array",
          "xml": {
            "name": "photoUrl",
            "wrapped": true
          },
          "items": {
            "type": "string"
          }
        }
      }
    },
    "SubSample": {
      "type": "object",
      "properties": {
        "id": {
          "type": "integer",
          "format": "int64"
        },
        "name": {
          "type": "string"
        }
      }
    }
  },
  "externalDocs": {
    "description": "",
    "url": ""
  }
}