{
	"resource": {
		"package_id": "indikatorvarden",
		"name": "qualityreporting-v1-performingOrganizations",
        "hash": "qualityreporting-v1-performingOrganizations__"
	},
	"fields": 
	[
		{
			"id": "performingOrganizationId",
			"type": "text"
		},
		{
			"id": "performingOrganizationHsaId",
			"type": "text"
		},
		{
			"id": "performingOrganizationName",
			"type": "text"
		},
		{
			"id": "performingOrganizationType",
			"type": "json"
		},
		{
			"id": "asOrganizationPartOf",
			"type": "json"
		}
	],
	"primary_key": "performingOrganizationId"
}