{
  "resource": {
    "package_id": "indikatorvarden",
    "name": "qualityreporting-v1-reportingOrganizations",
    "hash": "qualityreporting-v1-reportingOrganizations__"
  },
  "fields": [
    {
      "id": "hsaId",
      "type": "text"
    },
    {
      "id": "name",
      "type": "text"
    }
  ],
  "primary_key": "hsaId",
  "records": [
    {
      "hsaId": "?????",
      "name": null
    },
    {
      "hsaId": "SE2321000131-E000000010054",
      "name": "Registercentrum i Västra Götaland"
    },
    {
      "hsaId": "skl-hsa",
      "name": "Sveriges Kommuner och Landsting"
    }
  ]
}