{
  "tags": [
    "Status"
  ],
  "full_channel_name": "GET status",
  "summary": "Get API status to verify that the API is up and running",
  "security": [],
  "responses": {
    "500": {
      "description": "Could not retrieve API status"
    },
    "200": {
      "description": "API status retrieved successfully"
    }
  }
}