{
  "tags": [
    "Qualityreporting"
  ],
  "full_channel_name": "GET qualityreporting v1 performingOrganizations --ID-- measurements",
  "summary": "Get all Measurements for a certain performingOrganizationId",
  "parameters": [
    {
      "in": "path",
      "name": "ID",
      "schema": {
        "type": "string"
      },
      "description": "The performingOrganizationId to filter on.",
      "required": true
    },
    {
      "$ref": "#/components/parameters/limit"
    },
    {
      "$ref": "#/components/parameters/offset"
    },
    {
      "$ref": "#/components/parameters/qualityreporting/v1/measurements/fields"
    },
    {
      "$ref": "#/components/parameters/qualityreporting/v1/measurements/sort"
    },
    {
      "$ref": "#/components/parameters/qualityreporting/v1/measurements/filters/measureIdNonRequired"
    },
    {
      "$ref": "#/components/parameters/qualityreporting/v1/measurements/filters/parentMeasureId"
    },
    {
      "$ref": "#/components/parameters/qualityreporting/v1/measurements/filters/measureVersion"
    },
    {
      "$ref": "#/components/parameters/qualityreporting/v1/measurements/filters/measurementId"
    },
    {
      "$ref": "#/components/parameters/qualityreporting/v1/measurements/filters/measurePeriodStart"
    },
    {
      "$ref": "#/components/parameters/qualityreporting/v1/measurements/filters/measurePeriodEnd"
    },
    {
      "$ref": "#/components/parameters/qualityreporting/v1/measurements/filters/firstServiceEncounter"
    },
    {
      "$ref": "#/components/parameters/qualityreporting/v1/measurements/filters/lastServiceEncounter"
    },
    {
      "$ref": "#/components/parameters/qualityreporting/v1/measurements/filters/aggregatedQualityReportId"
    }
  ],
  "responses": {
    "500": {
      "$ref": "#/components/responses/errors/ServerError"
    },
    "200": {
      "description": "Call was successful",
      "content": {
        "application/json": {
          "schema": {
            "oneOf": [
              {
                "type": "array",
                "items": {
                  "$ref": "#/components/schemas/QualityreportingV1MeasurementType"
                }
              },
              {
                "$ref": "#/components/schemas/QualityreportingV1MeasurementTypeLimitResponse"
              }
            ]
          }
        }
      },
      "examples": {
        "standardResponse": [
          "QualityreportingV1MeasurementType"
        ],
        "responseWhenUsingLimitParameter": {
          "$ref": "#/components/schemas/QualityreportingV1MeasurementTypeLimitResponse/example"
        }
      }
    }
  }
}