{
  "resource": {
    "package_id": "buh",
    "name": "buh-v1-urgencyLevels",
    "hash": "buh-v1-urgencyLevels__"
  },
  "fields": [
    {
      "id": "urgencyLevelId",
      "type": "int"
    },
    {
      "id": "urgencyLevelVersionId",
      "type": "int"
    },
    {
      "id": "name",
      "type": "text"
    },
    {
      "id": "description",
      "type": "text"
    },
    {
      "id": "severity",
      "type": "int"
    },    
    {
      "id": "publishStartDate",
      "type": "timestamp"
    },
    {
      "id": "publishEndDate",
      "type": "timestamp"
    },
    {
      "id": "createdDate",
      "type": "timestamp"
    },
    {
      "id": "updatedDate",
      "type": "timestamp"
    }
  ],
  "primary_key": "urgencyLevelId"
}