{
  "tags": [
    "HSA"
  ],
  "full_channel_name": "GET hsa v1 hsaObjects --ID-- children",
  "summary": "Get the children HsaObjects of the HsaObject with the specified hsaIdentity.",
  "parameters": [
    {
      "in": "path",
      "name": "ID",
      "schema": {
        "type": "string"
      },
      "description": "The hsaIdentity of the HsaObject whose children should be retrieved",
      "required": true
    },
    {
      "$ref": "#/components/parameters/limit"
    },
    {
      "$ref": "#/components/parameters/offset"
    },
    {
      "$ref": "#/components/parameters/hsa/v1/hsaObjects/fields"
    },
    {
      "$ref": "#/components/parameters/hsa/v1/hsaObjects/sort"
    }
  ],
  "responses": {
    "500": {
      "$ref": "#/components/responses/errors/ServerError"
    },
    "200": {
      "description": "Call was successful",
      "content": {
        "application/json": {
          "schema": {
            "oneOf": [
              {
                "type": "array",
                "items": {
                  "$ref": "#/components/schemas/HsaV1HsaObjectType"
                }
              },
              {
                "$ref": "#/components/schemas/HsaV1HsaObjectTypeLimitResponse"
              }
            ]
          }
        }
      },
      "examples": {
        "standardResponse": [
          "HsaV1HsaObjectType"
        ],
        "responseWhenUsingLimitParameter": {
          "$ref": "#/components/schemas/HsaV1HsaObjectTypeLimitResponse/example"
        }
      }
    }
  }
}