0007c0a2-fa2f-4209-95c8-1bd1ff2957dd
0008f943-9735-4c30-ba5c-3ee44622c035
000e4468-0d10-44e2-b451-074d31e1e863
00133e2f-6dfe-4e6e-a996-50ed27159265
209337e2-936d-45c7-b725-908313d31aca
002743d5-0c27-4e3e-a0d2-3dbac0e60593
002d83c1-7b7e-4708-b8bf-f78eaa6ce2f2
003b9a8a-ecdc-4ff5-b8ab-5357a60426a1
00448568-8d6e-4495-ad77-4fc42ff55358
005672ae-0365-4144-a455-fe1ef0aa0b2a
00572626-e85d-4c92-8b7a-a039b4d8dbdb