0008795a-914b-4da0-9f9c-7417ebb08307
019eeaa8-8437-48ed-9024-15cbf6864aed
045545d5-0c74-4f81-8626-f9c8e079144c
06677975-b3b3-43ab-bb92-6cfecdd7cffc
0ad0f30a-5095-49b7-b663-5ee3b56d2cc0
06c50b70-2915-44ea-92a0-b036c43bf74a
077d53c8-b15e-484c-8297-fbf4776b1990
0905943a-951a-4a26-95cd-ee84b3524811
0a0721e4-5001-42c6-8690-dd33c9cd5eb2
0a49e089-8863-4f9d-b670-a8092d65a1b1